module code-echo

go 1.15

require (
	github.com/dgrijalva/jwt-go v3.2.0+incompatible
	github.com/ghodss/yaml v1.0.0 // indirect
	github.com/go-playground/universal-translator v0.17.0 // indirect
	github.com/go-playground/validator v9.31.0+incompatible
	github.com/jinzhu/gorm v1.9.16
	github.com/labstack/echo/v4 v4.2.1
	github.com/leodido/go-urn v1.2.0 // indirect
	github.com/mattn/go-colorable v0.1.8 // indirect
	github.com/minio/minio-go/v7 v7.0.6
	github.com/satori/go.uuid v1.2.1-0.20181028125025-b2ce2384e17b
	github.com/streadway/amqp v1.0.0
	github.com/tkanos/gonfig v0.0.0-20181112185242-896f3d81fadf
	golang.org/x/crypto v0.0.0-20201221181555-eec23a3978ad // indirect
	golang.org/x/net v0.0.0-20201224014010-6772e930b67b // indirect
	golang.org/x/oauth2 v0.0.0-20210220000619-9bb904979d93
	golang.org/x/sys v0.0.0-20201223074533-0d417f636930 // indirect
	golang.org/x/text v0.3.4 // indirect
	gopkg.in/go-playground/assert.v1 v1.2.1 // indirect
	gopkg.in/yaml.v2 v2.4.0 // indirect
	gorm.io/gorm v1.20.9
)
